…
The current methods for extracting the trees from the `BART` models are summarise below.

``` r
# Current methods for extracting trees:

tidytree_simple <- as_tidytree(bart_model)

tidytree_simple
```

    ## # A tibble: 182 x 5
    ## # Groups:   iter, tree_id [50]
    ##     iter tree_id  node parent label        
    ##    <int>   <int> <int>  <int> <chr>        
    ##  1     1       1     1     NA rm < 6.3     
    ##  2     1       1     2      1 -1.06        
    ##  3     1       1     3      1 lstat < 11.78
    ##  4     1       1     6      3 -0.3         
    ##  5     1       1     7      3 -4.07        
    ##  6     1       2     1     NA rm < 7.64    
    ##  7     1       2     2      1 4.75         
    ##  8     1       2     3      1 8.7          
    ##  9     1       3     1     NA lstat < 16.44
    ## 10     1       3     2      1 -0.35        
    ## # … with 172 more rows

``` r
tidytree_detailed <- as_tidytree(
  bart_model, 
  extra_cols = c("var", "cut", "leaf_value", "is_leaf")
  )

tidytree_detailed
```

    ## # A tibble: 182 x 9
    ## # Groups:   iter, tree_id [50]
    ##     iter tree_id  node parent label         var     cut leaf_value is_leaf
    ##    <int>   <int> <int>  <int> <chr>         <chr> <dbl>      <dbl> <lgl>  
    ##  1     1       1     1     NA rm < 6.3      rm     6.30     NA     FALSE  
    ##  2     1       1     2      1 -1.06         <NA>  NA        -1.06  TRUE   
    ##  3     1       1     3      1 lstat < 11.78 lstat 11.8      NA     FALSE  
    ##  4     1       1     6      3 -0.3          <NA>  NA        -0.300 TRUE   
    ##  5     1       1     7      3 -4.07         <NA>  NA        -4.07  TRUE   
    ##  6     1       2     1     NA rm < 7.64     rm     7.64     NA     FALSE  
    ##  7     1       2     2      1 4.75          <NA>  NA         4.75  TRUE   
    ##  8     1       2     3      1 8.7           <NA>  NA         8.70  TRUE   
    ##  9     1       3     1     NA lstat < 16.44 lstat 16.4      NA     FALSE  
    ## 10     1       3     2      1 -0.35         <NA>  NA        -0.351 TRUE   
    ## # … with 172 more rows
…
